To Bayes or to Bootstrap – that is the question
…
Making predictions

Predict training data

Make predictions of bird counts for the data we have. Predictions can be made with estimated random effects, but are provided without errors or uncertainty ranges.

What are in the different columns?

df %>% 
  select(birdcount) %>% 
  mutate(all_random_effects=predict(mod, type='response', re.form=NULL),
         landscape_random_effect=predict(mod,type = 'response',re.form = ~(1|landscape)),
         no_random_effects=predict(mod,type = 'response',re.form = NA))

## # A tibble: 66 x 4
##    birdcount all_random_effects landscape_random_effect no_random_effects
##        <dbl>              <dbl>                   <dbl>             <dbl>
##  1        40              37.9                    24.7              23.6 
##  2        27              28.8                    24.7              23.6 
##  3        32              26.2                    22.4              23.7 
##  4        11              17.2                    22.4              23.7 
##  5        12              13.8                    11.8              15.1 
##  6        16              16.0                    11.8              15.1 
##  7        14              13.4                     9.87              6.55
##  8        10               7.60                    9.87              6.55
##  9        13              11.8                    20.7              17.3 
## 10        32              31.8                    20.7              17.3 
## # … with 56 more rows
…
